#created on: 2-mag-2012
package com.selexelsag.xte.business;

#list any import classes here.
import com.selexelsag.xte.model.flows.FlowParams;

#declare any global variables here

rule "CHECK_FOR_INTEROP"

    when 
    FlowParams(flowId.equals("FID_DP_TP_AM") ||
        flowId.equals("FID_DP_TP_LM") ||
        flowId.equals("FID_DP_TP_NM") ||
        flowId.equals("FID_DP_TP_SM") ||
        flowId.equals("FID_DP_TP_AO") ||
		flowId.equals("FID_DP_EM_AM") ||
        flowId.equals("FID_DP_EM_LM") ||
        flowId.equals("FID_DP_EM_NM") ||
        flowId.equals("FID_DP_EM_SM") ||
        flowId.equals("FID_DP_EM_AO"))
    $processId: StringBuilder() 
    then
        $processId.append("com.selexelsag.xte.bpm.sync_default");
end
