/Users/lucacalabrese/progetti/2017/LEONARDO/STN_PACCHI_626/dbtrace.bridge.rootpom/DbTraceBridge-JmsReceiverSDA/src/main/java/com/elsagdatamat/dbtrace/dao/PkConServiziAggiuntiviDAO.java
/Users/lucacalabrese/progetti/2017/LEONARDO/STN_PACCHI_626/dbtrace.bridge.rootpom/DbTraceBridge-JmsReceiverSDA/src/main/java/com/elsagdatamat/dbtrace/entity/PkPrdProdottiSdaVW.java
/Users/lucacalabrese/progetti/2017/LEONARDO/STN_PACCHI_626/dbtrace.bridge.rootpom/DbTraceBridge-JmsReceiverSDA/src/main/java/com/elsagdatamat/dbtrace/fromsda/bean/CustomJsonDateDeserializer.java
/Users/lucacalabrese/progetti/2017/LEONARDO/STN_PACCHI_626/dbtrace.bridge.rootpom/DbTraceBridge-JmsReceiverSDA/src/main/java/com/elsagdatamat/dbtrace/dao/IPkConServiziAggiuntiviDAO.java
/Users/lucacalabrese/progetti/2017/LEONARDO/STN_PACCHI_626/dbtrace.bridge.rootpom/DbTraceBridge-JmsReceiverSDA/src/main/java/com/elsagdatamat/dbtrace/fromsda/bean/HEADER.java
/Users/lucacalabrese/progetti/2017/LEONARDO/STN_PACCHI_626/dbtrace.bridge.rootpom/DbTraceBridge-JmsReceiverSDA/src/main/java/com/elsagdatamat/dbtrace/bl/PkPrdProdottiSdaVWBL.java
/Users/lucacalabrese/progetti/2017/LEONARDO/STN_PACCHI_626/dbtrace.bridge.rootpom/DbTraceBridge-JmsReceiverSDA/src/main/java/com/elsagdatamat/dbtrace/bridge/jms/bl/MessageDestinationSDA.java
/Users/lucacalabrese/progetti/2017/LEONARDO/STN_PACCHI_626/dbtrace.bridge.rootpom/DbTraceBridge-JmsReceiverSDA/src/main/java/com/elsagdatamat/dbtrace/bridge/jms/bl/DbTraceBridgeSDABL.java
/Users/lucacalabrese/progetti/2017/LEONARDO/STN_PACCHI_626/dbtrace.bridge.rootpom/DbTraceBridge-JmsReceiverSDA/src/main/java/com/elsagdatamat/dbtrace/fromsda/bean/CustomJsonDateSerializer.java
/Users/lucacalabrese/progetti/2017/LEONARDO/STN_PACCHI_626/dbtrace.bridge.rootpom/DbTraceBridge-JmsReceiverSDA/src/main/java/com/elsagdatamat/dbtrace/fromsda/bean/TRACE.java
/Users/lucacalabrese/progetti/2017/LEONARDO/STN_PACCHI_626/dbtrace.bridge.rootpom/DbTraceBridge-JmsReceiverSDA/src/main/java/com/elsagdatamat/dbtrace/dao/IPkPrdProdottiSdaVWDAO.java
/Users/lucacalabrese/progetti/2017/LEONARDO/STN_PACCHI_626/dbtrace.bridge.rootpom/DbTraceBridge-JmsReceiverSDA/src/main/java/com/elsagdatamat/dbtrace/bl/IPkPrdProdottiSdaVWBL.java
/Users/lucacalabrese/progetti/2017/LEONARDO/STN_PACCHI_626/dbtrace.bridge.rootpom/DbTraceBridge-JmsReceiverSDA/src/main/java/com/elsagdatamat/dbtrace/fromsda/bean/PRESDA.java
/Users/lucacalabrese/progetti/2017/LEONARDO/STN_PACCHI_626/dbtrace.bridge.rootpom/DbTraceBridge-JmsReceiverSDA/src/main/java/com/elsagdatamat/dbtrace/fromsda/bean/ObjectFactory.java
/Users/lucacalabrese/progetti/2017/LEONARDO/STN_PACCHI_626/dbtrace.bridge.rootpom/DbTraceBridge-JmsReceiverSDA/src/main/java/com/elsagdatamat/dbtrace/bl/PkConServiziAggiuntiviBL.java
/Users/lucacalabrese/progetti/2017/LEONARDO/STN_PACCHI_626/dbtrace.bridge.rootpom/DbTraceBridge-JmsReceiverSDA/src/main/java/com/elsagdatamat/dbtrace/bridge/jms/bl/WhatHappenedFowardAnagraphic.java
/Users/lucacalabrese/progetti/2017/LEONARDO/STN_PACCHI_626/dbtrace.bridge.rootpom/DbTraceBridge-JmsReceiverSDA/src/main/java/com/elsagdatamat/dbtrace/fromsda/bean/MessageJson.java
/Users/lucacalabrese/progetti/2017/LEONARDO/STN_PACCHI_626/dbtrace.bridge.rootpom/DbTraceBridge-JmsReceiverSDA/src/main/java/com/elsagdatamat/dbtrace/bl/IPkConServiziAggiuntiviBL.java
/Users/lucacalabrese/progetti/2017/LEONARDO/STN_PACCHI_626/dbtrace.bridge.rootpom/DbTraceBridge-JmsReceiverSDA/src/main/java/com/elsagdatamat/dbtrace/dao/PkPrdProdottiSdaVWDAO.java
/Users/lucacalabrese/progetti/2017/LEONARDO/STN_PACCHI_626/dbtrace.bridge.rootpom/DbTraceBridge-JmsReceiverSDA/src/main/java/com/elsagdatamat/dbtrace/entity/PkConServiziAggiuntiviPk.java
/Users/lucacalabrese/progetti/2017/LEONARDO/STN_PACCHI_626/dbtrace.bridge.rootpom/DbTraceBridge-JmsReceiverSDA/src/main/java/com/elsagdatamat/dbtrace/VO/PkConServiziAggiuntiviMapVO.java
/Users/lucacalabrese/progetti/2017/LEONARDO/STN_PACCHI_626/dbtrace.bridge.rootpom/DbTraceBridge-JmsReceiverSDA/src/main/java/com/elsagdatamat/dbtrace/fromsda/bean/Message.java
/Users/lucacalabrese/progetti/2017/LEONARDO/STN_PACCHI_626/dbtrace.bridge.rootpom/DbTraceBridge-JmsReceiverSDA/src/main/java/com/elsagdatamat/dbtrace/fromsda/bean/TRACE_.java
/Users/lucacalabrese/progetti/2017/LEONARDO/STN_PACCHI_626/dbtrace.bridge.rootpom/DbTraceBridge-JmsReceiverSDA/src/main/java/com/elsagdatamat/dbtrace/entity/PkConServiziAggiuntivi.java
