com/elsagdatamat/dbtrace/bridge/engine/dao/ConsumerProductDAO.class
com/elsagdatamat/dbtrace/bridge/engine/bl/BLToken.class
com/elsagdatamat/dbtrace/bridge/engine/dao/IModPagContrPiSdaDAO.class
com/elsagdatamat/dbtrace/bridge/engine/ws/CustomTraceWs.class
com/elsagdatamat/dbtrace/bridge/engine/entities/DiscardedTrace.class
com/elsagdatamat/dbtrace/bridge/engine/entities/FromNspToCmpPK.class
com/elsagdatamat/dbtrace/bridge/engine/entities/CodiciProdottoPICodiciProdottoSDAPK.class
com/elsagdatamat/dbtrace/bridge/engine/entities/OfficeMapper.class
com/elsagdatamat/dbtrace/bridge/engine/XmlTraceEntityBuilder.class
com/elsagdatamat/dbtrace/bridge/engine/bl/CodiciProdottoPICodiciProdottoSDAManager$PatternAndCode.class
com/elsagdatamat/dbtrace/bridge/engine/ws/XmlTraceWsBuilder.class
com/elsagdatamat/dbtrace/bridge/engine/dao/TagToConvertSubPDAO.class
com/elsagdatamat/dbtrace/bridge/engine/bl/IDiscardedTraceManager.class
com/elsagdatamat/dbtrace/bridge/engine/bl/BLOfficeMapper.class
com/elsagdatamat/dbtrace/bridge/engine/bl/ExtBaseManager.class
com/elsagdatamat/dbtrace/bridge/engine/IMessageBuilder.class
com/elsagdatamat/dbtrace/bridge/engine/bl/IBLToken.class
com/elsagdatamat/dbtrace/bridge/engine/dao/IFromNspToCmpDAO.class
com/elsagdatamat/dbtrace/bridge/engine/bl/BLFromNspToCmp.class
com/elsagdatamat/dbtrace/bridge/engine/dao/ParameterDAO.class
com/elsagdatamat/dbtrace/bridge/engine/bl/DbTraceBridgeBL.class
com/elsagdatamat/dbtrace/bridge/engine/ITokenBuilder.class
com/elsagdatamat/dbtrace/bridge/engine/entities/CodiciProdottoPICodiciProdottoSDA.class
com/elsagdatamat/dbtrace/bridge/engine/exceptions/TrackDBRWException.class
com/elsagdatamat/dbtrace/bridge/engine/dao/MdcTransactionManager.class
com/elsagdatamat/dbtrace/bridge/engine/entities/TagToConvertSubP.class
com/elsagdatamat/dbtrace/bridge/engine/bl/IRemovedTraceBL.class
com/elsagdatamat/dbtrace/bridge/engine/dao/IConsumerProductDAO.class
com/elsagdatamat/dbtrace/bridge/engine/ITrackTrace.class
com/elsagdatamat/dbtrace/bridge/engine/dao/StatusPiSdaDAO.class
com/elsagdatamat/dbtrace/bridge/engine/dao/CodiciProdottoPICodiciProdottoSDADAO.class
com/elsagdatamat/dbtrace/bridge/engine/bl/IStatusPiSdaBL.class
com/elsagdatamat/dbtrace/bridge/engine/entities/ConsumerProductPK.class
com/elsagdatamat/dbtrace/bridge/engine/exceptions/InsertTracesException.class
com/elsagdatamat/dbtrace/bridge/engine/MessageBuilderBase.class
com/elsagdatamat/dbtrace/bridge/engine/bl/ModPagContrPiSdaBL.class
com/elsagdatamat/dbtrace/bridge/engine/IDbTraceBridge.class
com/elsagdatamat/dbtrace/bridge/engine/entities/Token.class
com/elsagdatamat/dbtrace/bridge/engine/bl/WhatHappenedNotOnDBT.class
com/elsagdatamat/dbtrace/bridge/engine/entities/ConsumerProduct.class
com/elsagdatamat/dbtrace/bridge/engine/ws/ITrackDBRWServiceManager.class
com/elsagdatamat/dbtrace/bridge/engine/dao/ITagToConvertSubPDAO.class
com/elsagdatamat/dbtrace/bridge/engine/dao/IDiscardedTraceDAO.class
com/elsagdatamat/dbtrace/bridge/engine/bl/IBLFromTo.class
com/elsagdatamat/dbtrace/bridge/engine/bl/IModPagContrPiSdaBL.class
com/elsagdatamat/dbtrace/bridge/engine/dao/TokenDAO.class
com/elsagdatamat/dbtrace/bridge/engine/bl/ITagToConvertSubPManager.class
com/elsagdatamat/dbtrace/bridge/engine/bl/IConsumerProductManager.class
com/elsagdatamat/dbtrace/bridge/engine/dao/IStatusPiSdaDAO.class
com/elsagdatamat/dbtrace/bridge/engine/IToMessageBuilder.class
com/elsagdatamat/dbtrace/bridge/engine/dao/IOfficeMapperDAO.class
com/elsagdatamat/dbtrace/bridge/engine/entities/ModPagContrPiSda.class
com/elsagdatamat/dbtrace/bridge/engine/entities/RemovedTrace.class
com/elsagdatamat/dbtrace/bridge/engine/dao/IParameterDAO.class
com/elsagdatamat/dbtrace/bridge/engine/bl/BaseManager.class
com/elsagdatamat/dbtrace/bridge/engine/bl/BLFromTo.class
com/elsagdatamat/dbtrace/bridge/engine/bl/ToToken.class
com/elsagdatamat/dbtrace/bridge/engine/bl/RemovedTraceBL.class
com/elsagdatamat/dbtrace/bridge/engine/dao/FromNspToCmpDAO.class
com/elsagdatamat/dbtrace/bridge/engine/entities/Parameter.class
com/elsagdatamat/dbtrace/bridge/engine/bl/IManager.class
com/elsagdatamat/dbtrace/bridge/engine/bl/IBLOfficeMapper.class
com/elsagdatamat/dbtrace/bridge/engine/bl/IBLFromNspToCmp.class
com/elsagdatamat/dbtrace/bridge/engine/bl/TTDbTraceBridge.class
com/elsagdatamat/dbtrace/bridge/engine/entities/ModPagContrPiSdaPK.class
com/elsagdatamat/dbtrace/bridge/engine/bl/StatusPiSdaBL.class
com/elsagdatamat/dbtrace/bridge/engine/bl/WhatHappenedOnDBTOnTT.class
com/elsagdatamat/dbtrace/bridge/engine/dao/ModPagContrPiSdaDAO.class
com/elsagdatamat/dbtrace/bridge/engine/bl/DiscardedTraceManager.class
com/elsagdatamat/dbtrace/bridge/engine/dao/GeneralDAO.class
com/elsagdatamat/dbtrace/bridge/engine/dao/DiscardedTraceDAO.class
com/elsagdatamat/dbtrace/bridge/engine/bl/IToToken.class
com/elsagdatamat/dbtrace/bridge/engine/ws/TrackDBRWServiceManager.class
com/elsagdatamat/dbtrace/bridge/engine/bl/TagToConvertSubPManager.class
com/elsagdatamat/dbtrace/bridge/engine/dao/IRemovedTraceDAO.class
com/elsagdatamat/dbtrace/bridge/engine/bl/ICodiciProdottoPICodiciProdottoSDAManager.class
com/elsagdatamat/dbtrace/bridge/engine/bl/IExtManager.class
com/elsagdatamat/dbtrace/bridge/engine/dao/RemovedTraceDAO.class
com/elsagdatamat/dbtrace/bridge/engine/dao/ITokenDAO.class
com/elsagdatamat/dbtrace/bridge/engine/ITracesReader.class
com/elsagdatamat/dbtrace/bridge/engine/bl/CodiciProdottoPICodiciProdottoSDAManager.class
com/elsagdatamat/dbtrace/bridge/engine/IMessageSender.class
com/elsagdatamat/dbtrace/bridge/engine/CustomTraceEntity.class
com/elsagdatamat/dbtrace/bridge/engine/entities/StatusPiSdaPK.class
com/elsagdatamat/dbtrace/bridge/engine/dao/CustomHibernateJpaDialect.class
com/elsagdatamat/dbtrace/bridge/engine/entities/OfficeMapperPK.class
com/elsagdatamat/dbtrace/bridge/engine/dao/OfficeMapperDAO.class
com/elsagdatamat/dbtrace/bridge/engine/dao/IFromToDAO.class
com/elsagdatamat/dbtrace/bridge/engine/entities/FromTo.class
com/elsagdatamat/dbtrace/bridge/engine/dao/FromToDAO.class
com/elsagdatamat/dbtrace/bridge/engine/bl/IParameterManager.class
com/elsagdatamat/dbtrace/bridge/engine/bl/ParameterManager.class
com/elsagdatamat/dbtrace/bridge/engine/entities/FromNspToCmp.class
com/elsagdatamat/dbtrace/bridge/engine/bl/ConsumerProductManager.class
com/elsagdatamat/dbtrace/bridge/engine/ws/WsDbTraceBridge.class
com/elsagdatamat/dbtrace/bridge/engine/entities/StatusPiSda.class
com/elsagdatamat/dbtrace/bridge/engine/dao/ICodiciProdottoPICodiciProdottoSDADAO.class
