/Users/lucacalabrese/progetti/2017/LEONARDO/STN_PACCHI_626/dbtrace.bridge.rootpom/DbTraceBridge-ToEDWH/src/main/java/com/elsagdatamat/dbtrace/bridge/toedwh/ToEDWHEsiPackToken.java
/Users/lucacalabrese/progetti/2017/LEONARDO/STN_PACCHI_626/dbtrace.bridge.rootpom/DbTraceBridge-ToEDWH/src/main/java/com/elsagdatamat/dbtrace/bridge/toedwh/EDWHFatturazioni.java
/Users/lucacalabrese/progetti/2017/LEONARDO/STN_PACCHI_626/dbtrace.bridge.rootpom/DbTraceBridge-ToEDWH/src/main/java/com/elsagdatamat/dbtrace/bridge/toedwh/EDWHFattPack.java
/Users/lucacalabrese/progetti/2017/LEONARDO/STN_PACCHI_626/dbtrace.bridge.rootpom/DbTraceBridge-ToEDWH/src/main/java/com/elsagdatamat/dbtrace/bridge/toedwh/EDWHStati.java
/Users/lucacalabrese/progetti/2017/LEONARDO/STN_PACCHI_626/dbtrace.bridge.rootpom/DbTraceBridge-ToEDWH/src/main/java/com/elsagdatamat/dbtrace/bridge/toedwh/EDWHHeader.java
/Users/lucacalabrese/progetti/2017/LEONARDO/STN_PACCHI_626/dbtrace.bridge.rootpom/DbTraceBridge-ToEDWH/src/main/java/com/elsagdatamat/dbtrace/bridge/toedwh/EDWHFattPock.java
/Users/lucacalabrese/progetti/2017/LEONARDO/STN_PACCHI_626/dbtrace.bridge.rootpom/DbTraceBridge-ToEDWH/src/main/java/com/elsagdatamat/dbtrace/bridge/toedwh/ToEDWHFattPackToken.java
/Users/lucacalabrese/progetti/2017/LEONARDO/STN_PACCHI_626/dbtrace.bridge.rootpom/DbTraceBridge-ToEDWH/src/main/java/com/elsagdatamat/dbtrace/bridge/toedwh/ToEDWHEsiPockToken.java
/Users/lucacalabrese/progetti/2017/LEONARDO/STN_PACCHI_626/dbtrace.bridge.rootpom/DbTraceBridge-ToEDWH/src/main/java/com/elsagdatamat/dbtrace/bridge/toedwh/ToEDWHMessageBuilder.java
/Users/lucacalabrese/progetti/2017/LEONARDO/STN_PACCHI_626/dbtrace.bridge.rootpom/DbTraceBridge-ToEDWH/src/main/java/com/elsagdatamat/dbtrace/bridge/toedwh/ToEDWHFattPockToken.java
/Users/lucacalabrese/progetti/2017/LEONARDO/STN_PACCHI_626/dbtrace.bridge.rootpom/DbTraceBridge-ToEDWH/src/main/java/com/elsagdatamat/dbtrace/bridge/toedwh/EDWHEsiti.java
/Users/lucacalabrese/progetti/2017/LEONARDO/STN_PACCHI_626/dbtrace.bridge.rootpom/DbTraceBridge-ToEDWH/src/main/java/com/elsagdatamat/dbtrace/bridge/toedwh/ToEDWHToken.java
/Users/lucacalabrese/progetti/2017/LEONARDO/STN_PACCHI_626/dbtrace.bridge.rootpom/DbTraceBridge-ToEDWH/src/main/java/com/elsagdatamat/dbtrace/bridge/toedwh/EDWHFooter.java
/Users/lucacalabrese/progetti/2017/LEONARDO/STN_PACCHI_626/dbtrace.bridge.rootpom/DbTraceBridge-ToEDWH/src/main/java/com/elsagdatamat/dbtrace/bridge/toedwh/EDWHEsiPock.java
/Users/lucacalabrese/progetti/2017/LEONARDO/STN_PACCHI_626/dbtrace.bridge.rootpom/DbTraceBridge-ToEDWH/src/main/java/com/elsagdatamat/dbtrace/bridge/toedwh/ToEDWHStatoEsitoToken.java
/Users/lucacalabrese/progetti/2017/LEONARDO/STN_PACCHI_626/dbtrace.bridge.rootpom/DbTraceBridge-ToEDWH/src/main/java/com/elsagdatamat/dbtrace/bridge/toedwh/EDWHConversionUtility.java
/Users/lucacalabrese/progetti/2017/LEONARDO/STN_PACCHI_626/dbtrace.bridge.rootpom/DbTraceBridge-ToEDWH/src/main/java/com/elsagdatamat/dbtrace/bridge/toedwh/EDWHEsiPack.java
