com/elsagdatamat/trackdb/toedwh/entities/Trace.class
com/elsagdatamat/trackdb/toedwh/dao/SentTraceDAO$MyJpaCallback.class
com/elsagdatamat/dbtrace/bridge/toedwh/WsToJmsBridge.class
com/elsagdatamat/trackdb/toedwh/dao/ITraceDetailDAO.class
com/elsagdatamat/trackdb/toedwh/dao/TraceDetailDAO$1MyJpaCallback.class
com/elsagdatamat/trackdb/toedwh/entities/TraceTypesToSendPK.class
com/elsagdatamat/trackdb/toedwh/dao/TraceDetailDAO.class
com/elsagdatamat/trackdb/toedwh/dao/TraceDAO$1.class
com/elsagdatamat/trackdb/toedwh/vo/TraceDetailVO.class
com/elsagdatamat/trackdb/toedwh/dao/TraceDAO.class
com/elsagdatamat/dbtrace/bridge/toedwh/CsvUtils.class
com/elsagdatamat/trackdb/toedwh/dao/TraceTypesToSendDAO.class
com/elsagdatamat/trackdb/toedwh/entities/TraceDetail.class
com/elsagdatamat/trackdb/toedwh/dao/ITraceTypesToSendDAO.class
com/elsagdatamat/trackdb/toedwh/dao/ISentTraceDAO.class
com/elsagdatamat/trackdb/toedwh/manager/ITraceManager.class
com/elsagdatamat/trackdb/toedwh/dao/SentTraceDAO.class
com/elsagdatamat/dbtrace/bridge/toedwh/JmsHeaderConstantsInterface.class
com/elsagdatamat/trackdb/toedwh/dao/SentTraceDAO$MyJpaBatchCallback.class
com/elsagdatamat/trackdb/toedwh/manager/TraceTypesToSendManager.class
com/elsagdatamat/trackdb/toedwh/manager/ITraceTypesToSendManager.class
com/elsagdatamat/trackdb/toedwh/dao/IEdwhTracesReadyToSendVWDAO.class
com/elsagdatamat/trackdb/toedwh/dao/EdwhTracesReadyToSendVWDAO.class
com/elsagdatamat/trackdb/toedwh/entities/SentTrace.class
com/elsagdatamat/dbtrace/bridge/toedwh/ToEDWHMessageBuilder.class
com/elsagdatamat/trackdb/toedwh/vo/EdwhTracesList.class
com/elsagdatamat/trackdb/toedwh/manager/TraceManager.class
com/elsagdatamat/dbtrace/bridge/toedwh/ToEDWHMessageCleaner.class
com/elsagdatamat/trackdb/toedwh/manager/SentTraceManager.class
com/elsagdatamat/dbtrace/bridge/toedwh/ToEdwhMessageBuilderInterface.class
com/elsagdatamat/trackdb/toedwh/entities/EdwhTracesReadyToSendVW.class
com/elsagdatamat/dbtrace/bridge/toedwh/EDWHCompressedMessageCreator.class
com/elsagdatamat/trackdb/toedwh/vo/TraceVO.class
com/elsagdatamat/dbtrace/bridge/toedwh/ToEdwhMessageCleanerInterface.class
com/elsagdatamat/trackdb/toedwh/dao/TraceDAO$MyJpaCallback.class
com/elsagdatamat/trackdb/toedwh/entities/TraceTypesToSend.class
com/elsagdatamat/trackdb/toedwh/manager/ISentTraceManager.class
com/elsagdatamat/trackdb/toedwh/dao/ITraceDAO.class
