/Users/lucacalabrese/progetti/2017/LEONARDO/STN_PACCHI_626/dbtrace.bridge.rootpom/DbTraceBridge-ToEDWH2/src/main/java/com/elsagdatamat/trackdb/toedwh/dao/TraceDAO.java
/Users/lucacalabrese/progetti/2017/LEONARDO/STN_PACCHI_626/dbtrace.bridge.rootpom/DbTraceBridge-ToEDWH2/src/main/java/com/elsagdatamat/dbtrace/bridge/toedwh/ToEDWHMessageBuilder.java
/Users/lucacalabrese/progetti/2017/LEONARDO/STN_PACCHI_626/dbtrace.bridge.rootpom/DbTraceBridge-ToEDWH2/src/main/java/com/elsagdatamat/trackdb/toedwh/entities/Trace.java
/Users/lucacalabrese/progetti/2017/LEONARDO/STN_PACCHI_626/dbtrace.bridge.rootpom/DbTraceBridge-ToEDWH2/src/main/java/com/elsagdatamat/dbtrace/bridge/toedwh/ToEDWHMessageCleaner.java
/Users/lucacalabrese/progetti/2017/LEONARDO/STN_PACCHI_626/dbtrace.bridge.rootpom/DbTraceBridge-ToEDWH2/src/main/java/com/elsagdatamat/trackdb/toedwh/manager/ITraceTypesToSendManager.java
/Users/lucacalabrese/progetti/2017/LEONARDO/STN_PACCHI_626/dbtrace.bridge.rootpom/DbTraceBridge-ToEDWH2/src/main/java/com/elsagdatamat/trackdb/toedwh/manager/SentTraceManager.java
/Users/lucacalabrese/progetti/2017/LEONARDO/STN_PACCHI_626/dbtrace.bridge.rootpom/DbTraceBridge-ToEDWH2/src/main/java/com/elsagdatamat/trackdb/toedwh/vo/EdwhTracesList.java
/Users/lucacalabrese/progetti/2017/LEONARDO/STN_PACCHI_626/dbtrace.bridge.rootpom/DbTraceBridge-ToEDWH2/src/main/java/com/elsagdatamat/trackdb/toedwh/dao/ISentTraceDAO.java
/Users/lucacalabrese/progetti/2017/LEONARDO/STN_PACCHI_626/dbtrace.bridge.rootpom/DbTraceBridge-ToEDWH2/src/main/java/com/elsagdatamat/trackdb/toedwh/dao/SentTraceDAO.java
/Users/lucacalabrese/progetti/2017/LEONARDO/STN_PACCHI_626/dbtrace.bridge.rootpom/DbTraceBridge-ToEDWH2/src/main/java/com/elsagdatamat/dbtrace/bridge/toedwh/ToEdwhMessageBuilderInterface.java
/Users/lucacalabrese/progetti/2017/LEONARDO/STN_PACCHI_626/dbtrace.bridge.rootpom/DbTraceBridge-ToEDWH2/src/main/java/com/elsagdatamat/trackdb/toedwh/vo/TraceDetailVO.java
/Users/lucacalabrese/progetti/2017/LEONARDO/STN_PACCHI_626/dbtrace.bridge.rootpom/DbTraceBridge-ToEDWH2/src/main/java/com/elsagdatamat/trackdb/toedwh/vo/TraceVO.java
/Users/lucacalabrese/progetti/2017/LEONARDO/STN_PACCHI_626/dbtrace.bridge.rootpom/DbTraceBridge-ToEDWH2/src/main/java/com/elsagdatamat/trackdb/toedwh/entities/TraceTypesToSendPK.java
/Users/lucacalabrese/progetti/2017/LEONARDO/STN_PACCHI_626/dbtrace.bridge.rootpom/DbTraceBridge-ToEDWH2/src/main/java/com/elsagdatamat/dbtrace/bridge/toedwh/ToEdwhMessageCleanerInterface.java
/Users/lucacalabrese/progetti/2017/LEONARDO/STN_PACCHI_626/dbtrace.bridge.rootpom/DbTraceBridge-ToEDWH2/src/main/java/com/elsagdatamat/trackdb/toedwh/entities/EdwhTracesReadyToSendVW.java
/Users/lucacalabrese/progetti/2017/LEONARDO/STN_PACCHI_626/dbtrace.bridge.rootpom/DbTraceBridge-ToEDWH2/src/main/java/com/elsagdatamat/trackdb/toedwh/dao/EdwhTracesReadyToSendVWDAO.java
/Users/lucacalabrese/progetti/2017/LEONARDO/STN_PACCHI_626/dbtrace.bridge.rootpom/DbTraceBridge-ToEDWH2/src/main/java/com/elsagdatamat/dbtrace/bridge/toedwh/EDWHCompressedMessageCreator.java
/Users/lucacalabrese/progetti/2017/LEONARDO/STN_PACCHI_626/dbtrace.bridge.rootpom/DbTraceBridge-ToEDWH2/src/main/java/com/elsagdatamat/dbtrace/bridge/toedwh/WsToJmsBridge.java
/Users/lucacalabrese/progetti/2017/LEONARDO/STN_PACCHI_626/dbtrace.bridge.rootpom/DbTraceBridge-ToEDWH2/src/main/java/com/elsagdatamat/trackdb/toedwh/manager/TraceTypesToSendManager.java
/Users/lucacalabrese/progetti/2017/LEONARDO/STN_PACCHI_626/dbtrace.bridge.rootpom/DbTraceBridge-ToEDWH2/src/main/java/com/elsagdatamat/trackdb/toedwh/dao/ITraceTypesToSendDAO.java
/Users/lucacalabrese/progetti/2017/LEONARDO/STN_PACCHI_626/dbtrace.bridge.rootpom/DbTraceBridge-ToEDWH2/src/main/java/com/elsagdatamat/dbtrace/bridge/toedwh/JmsHeaderConstantsInterface.java
/Users/lucacalabrese/progetti/2017/LEONARDO/STN_PACCHI_626/dbtrace.bridge.rootpom/DbTraceBridge-ToEDWH2/src/main/java/com/elsagdatamat/trackdb/toedwh/dao/ITraceDetailDAO.java
/Users/lucacalabrese/progetti/2017/LEONARDO/STN_PACCHI_626/dbtrace.bridge.rootpom/DbTraceBridge-ToEDWH2/src/main/java/com/elsagdatamat/trackdb/toedwh/manager/ITraceManager.java
/Users/lucacalabrese/progetti/2017/LEONARDO/STN_PACCHI_626/dbtrace.bridge.rootpom/DbTraceBridge-ToEDWH2/src/main/java/com/elsagdatamat/trackdb/toedwh/manager/ISentTraceManager.java
/Users/lucacalabrese/progetti/2017/LEONARDO/STN_PACCHI_626/dbtrace.bridge.rootpom/DbTraceBridge-ToEDWH2/src/main/java/com/elsagdatamat/dbtrace/bridge/toedwh/CsvUtils.java
/Users/lucacalabrese/progetti/2017/LEONARDO/STN_PACCHI_626/dbtrace.bridge.rootpom/DbTraceBridge-ToEDWH2/src/main/java/com/elsagdatamat/trackdb/toedwh/dao/IEdwhTracesReadyToSendVWDAO.java
/Users/lucacalabrese/progetti/2017/LEONARDO/STN_PACCHI_626/dbtrace.bridge.rootpom/DbTraceBridge-ToEDWH2/src/main/java/com/elsagdatamat/trackdb/toedwh/dao/ITraceDAO.java
/Users/lucacalabrese/progetti/2017/LEONARDO/STN_PACCHI_626/dbtrace.bridge.rootpom/DbTraceBridge-ToEDWH2/src/main/java/com/elsagdatamat/trackdb/toedwh/dao/TraceTypesToSendDAO.java
/Users/lucacalabrese/progetti/2017/LEONARDO/STN_PACCHI_626/dbtrace.bridge.rootpom/DbTraceBridge-ToEDWH2/src/main/java/com/elsagdatamat/trackdb/toedwh/entities/TraceDetail.java
/Users/lucacalabrese/progetti/2017/LEONARDO/STN_PACCHI_626/dbtrace.bridge.rootpom/DbTraceBridge-ToEDWH2/src/main/java/com/elsagdatamat/trackdb/toedwh/manager/TraceManager.java
/Users/lucacalabrese/progetti/2017/LEONARDO/STN_PACCHI_626/dbtrace.bridge.rootpom/DbTraceBridge-ToEDWH2/src/main/java/com/elsagdatamat/trackdb/toedwh/dao/TraceDetailDAO.java
/Users/lucacalabrese/progetti/2017/LEONARDO/STN_PACCHI_626/dbtrace.bridge.rootpom/DbTraceBridge-ToEDWH2/src/main/java/com/elsagdatamat/trackdb/toedwh/entities/SentTrace.java
/Users/lucacalabrese/progetti/2017/LEONARDO/STN_PACCHI_626/dbtrace.bridge.rootpom/DbTraceBridge-ToEDWH2/src/main/java/com/elsagdatamat/trackdb/toedwh/entities/TraceTypesToSend.java
